{
  "parent": "minecraft:recipes/root",
  "rewards": {
    "recipes": [
      "simplanet:copper_block_blasting"
    ]
  },
  "criteria": {
    "has_raw_copper_block": {
      "trigger": "minecraft:inventory_changed",
      "conditions": {
        "items": [
          {
            "item": "minecraft:raw_copper_block"
          }
        ]
      }
    },
    "has_the_recipe": {
      "trigger": "minecraft:recipe_unlocked",
      "conditions": {
        "recipe": "simplanet:copper_block_blasting"
      }
    }
  },
  "requirements": [
    [
      "has_raw_copper_block",
      "has_the_recipe"
    ]
  ]
}